…
``` r
## hammer time
library(mjolnir)

mjolnir.list(rt)
```

    ## # A tibble: 300 x 535
    ##    contributors                     created_at
    ##           <chr>                          <chr>
    ##  1         <NA> Sat Jul 15 13:36:04 +0000 2017
    ##  2         <NA> Sat Jul 15 13:36:04 +0000 2017
    ##  3         <NA> Sat Jul 15 13:36:04 +0000 2017
    ##  4         <NA> Sat Jul 15 13:36:04 +0000 2017
    ##  5         <NA> Sat Jul 15 13:36:04 +0000 2017
    ##  6         <NA> Sat Jul 15 13:36:04 +0000 2017
    ##  7         <NA> Sat Jul 15 13:36:04 +0000 2017
    ##  8         <NA> Sat Jul 15 13:36:04 +0000 2017
    ##  9         <NA> Sat Jul 15 13:36:04 +0000 2017
    ## 10         <NA> Sat Jul 15 13:36:04 +0000 2017
    ## # ... with 290 more rows, and 533 more variables:
    ## #   display_text_range <chr>, entities.hashtags.indices <chr>,
    ## #   entities.hashtags.text <chr>, entities.media.display_url <chr>,
    ## #   entities.media.expanded_url <chr>, entities.media.id <chr>,
    ## #   entities.media.id_str <chr>, entities.media.indices <chr>,
    ## #   entities.media.media_url <chr>, entities.media.media_url_https <chr>,
    ## #   entities.media.sizes.large.h <chr>,
    ## #   entities.media.sizes.large.resize <chr>,
    ## #   entities.media.sizes.large.w <chr>,
…
